<?xml version="1.0" encoding="utf-8"?>
<!-- Generator: Adobe Illustrator 23.0.4, SVG Export Plug-In . SVG Version: 6.00 Build 0)  -->
<svg version="1.1" id="Layer_1" xmlns="http://www.w3.org/2000/svg" xmlns:xlink="http://www.w3.org/1999/xlink" x="0px" y="0px"
	 viewBox="0 0 106.916 137.322" style="enable-background:new 0 0 106.916 137.322;" xml:space="preserve">
<style type="text/css">
	.st0{fill:#F2F2F2;enable-background:new    ;}
</style>
<path class="st0" d="M90.648,0h-3.024l19.293,8.258V6.964L90.648,0z M54.991,0h-3.016L35.664,6.982L19.353,0h-3.015l17.823,7.629
	l-16.322,6.983L0,6.976v1.29l16.333,6.991L0.015,22.242L0,22.235v92.855l0.024-0.01l51.964,22.242h3.016l16.316-6.984l16.317,6.984
	h3.011l-17.821-7.628l16.318-6.985l17.771,7.606v-1.289l-16.266-6.962l16.266-6.962V22.226L54.99,0.001L54.991,0z M71.678,84.405
	l17.824-7.629l16.7-7.148l0.001,13.972l-51.966,22.243V91.87L71.678,84.405z M71.316,83.27L19.35,61.027l16.318-6.985l51.966,22.243
	L71.316,83.27z M89.139,75.645L37.173,53.402l16.318-6.984l51.965,22.242L89.139,75.645z M0.768,23.208l17.442-7.466l17.823-7.629
	l0.001-0.004l16.7-7.147V14.93L0.768,37.173V23.208z M0.768,38.47l51.966-22.243v13.965L0.768,52.435V38.47z M0.768,53.725
	l51.966-22.243v13.969L0.768,67.694V53.725z M17.081,121.102l-16.317-6.984V69.632l16.317,6.985V121.102z M34.906,128.731
	l-16.318-6.984V77.262l16.318,6.984V128.731z M52.73,136.361l-16.318-6.985V84.891l16.318,6.984V136.361z M1.525,68.66l16.318-6.984
	l51.966,22.243l-16.317,6.984L1.525,68.66z M54.237,107.132l51.966-22.243v13.969l-51.966,22.243V107.132z M106.208,114.113
	l-51.966,22.243v-13.969l51.966-22.243V114.113z M89.889,16.223l16.318,6.984v44.486l-13.268-5.679l-3.05-1.306V16.223z
	 M72.065,8.594l16.317,6.984v44.486L72.065,53.08V8.594z M70.558,7.954v44.481l-16.317-6.984V0.97L70.558,7.954z M0,130.328
	l16.339,6.993h3.014L0,129.038V130.328z"/>
</svg>
